{
  "project_info": {
    "project_number": "896084415036",
    "firebase_url": "https://iopsaiapp.firebaseio.com",
    "project_id": "iopsaiapp",
    "storage_bucket": "iopsaiapp.appspot.com"
  },
  "client": [
    {
      "client_info": {
        "mobilesdk_app_id": "1:896084415036:android:2506963e3ed58317",
        "android_client_info": {
          "package_name": "com.sisindia.ai.android"
        }
      },
      "oauth_client": [
        {
          "client_id": "896084415036-jrcqo9kchfi5cckdk52me2aa0u524die.apps.googleusercontent.com",
          "client_type": 3
        }
      ],
      "api_key": [
        {
          "current_key": "AIzaSyDDhFh-vPm9bsWeRN4Z0cgHB7Tsi7TbTcg"
        }
      ],
      "services": {
        "analytics_service": {
          "status": 1
        },
        "appinvite_service": {
          "status": 1,
          "other_platform_oauth_client": []
        },
        "ads_service": {
          "status": 2
        }
      }
    }
  ],
  "configuration_version": "1"
}